<svg width="26" height="25" viewBox="0 0 26 25" fill="none" xmlns="http://www.w3.org/2000/svg">
<path d="M21.5312 1.5H4.34375C3.72215 1.5 3.12601 1.74693 2.68647 2.18647C2.24693 2.62601 2 3.22215 2 3.84375L2 21.0312C2 21.6529 2.24693 22.249 2.68647 22.6885C3.12601 23.1281 3.72215 23.375 4.34375 23.375H11.0454V15.938H7.96924V12.4375H11.0454V9.76953C11.0454 6.73486 12.8521 5.05859 15.6191 5.05859C16.9443 5.05859 18.3301 5.29492 18.3301 5.29492V8.27344H16.8032C15.2988 8.27344 14.8296 9.20703 14.8296 10.1646V12.4375H18.188L17.6509 15.938H14.8296V23.375H21.5312C22.1529 23.375 22.749 23.1281 23.1885 22.6885C23.6281 22.249 23.875 21.6529 23.875 21.0312V3.84375C23.875 3.22215 23.6281 2.62601 23.1885 2.18647C22.749 1.74693 22.1529 1.5 21.5312 1.5Z" fill="#0D2C48"/>
</svg>
