<svg width="26" height="25" viewBox="0 0 26 25" fill="none" xmlns="http://www.w3.org/2000/svg">
<path d="M12.997 8.83177C10.9772 8.83177 9.32888 10.4801 9.32888 12.5C9.32888 14.5199 10.9772 16.1682 12.997 16.1682C15.0169 16.1682 16.6652 14.5199 16.6652 12.5C16.6652 10.4801 15.0169 8.83177 12.997 8.83177ZM23.9988 12.5C23.9988 10.981 24.0125 9.47571 23.9272 7.95943C23.8419 6.19824 23.4402 4.63519 22.1523 3.34732C20.8617 2.05669 19.3014 1.65767 17.5403 1.57237C16.0213 1.48706 14.516 1.50082 12.9998 1.50082C11.4808 1.50082 9.97556 1.48706 8.45931 1.57237C6.69815 1.65767 5.13513 2.05945 3.84728 3.34732C2.55668 4.63794 2.15767 6.19824 2.07237 7.95943C1.98706 9.47846 2.00082 10.9837 2.00082 12.5C2.00082 14.0163 1.98706 15.5243 2.07237 17.0406C2.15767 18.8018 2.55944 20.3648 3.84728 21.6527C5.13788 22.9433 6.69815 23.3423 8.45931 23.4276C9.97831 23.5129 11.4835 23.4992 12.9998 23.4992C14.5188 23.4992 16.024 23.5129 17.5403 23.4276C19.3014 23.3423 20.8645 22.9406 22.1523 21.6527C23.4429 20.3621 23.8419 18.8018 23.9272 17.0406C24.0153 15.5243 23.9988 14.019 23.9988 12.5ZM12.997 18.1441C9.87374 18.1441 7.35309 15.6234 7.35309 12.5C7.35309 9.37664 9.87374 6.85594 12.997 6.85594C16.1203 6.85594 18.641 9.37664 18.641 12.5C18.641 15.6234 16.1203 18.1441 12.997 18.1441ZM18.8722 7.94292C18.1429 7.94292 17.554 7.35402 17.554 6.62478C17.554 5.89554 18.1429 5.30664 18.8722 5.30664C19.6014 5.30664 20.1903 5.89554 20.1903 6.62478C20.1905 6.79794 20.1565 6.96945 20.0904 7.12947C20.0242 7.28949 19.9271 7.43489 19.8047 7.55733C19.6822 7.67978 19.5369 7.77686 19.3768 7.84303C19.2168 7.90919 19.0453 7.94314 18.8722 7.94292Z" fill="#0D2C48"/>
</svg>
